-------------------------------------------------------------------------------
Test set: a.LogEntryTest
-------------------------------------------------------------------------------
Tests run: 1, Failures: 0, Errors: 0, Skipped: 0, Time elapsed: 0.21 s - in a.LogEntryTest
